{
  "project_info": {
    "project_number": "860893422336",
    "project_id": "industree-318307",
    "storage_bucket": "industree-318307.appspot.com"
  },
  "client": [
    {
      "client_info": {
        "mobilesdk_app_id": "1:860893422336:android:685dc352ec750a3c2109e5",
        "android_client_info": {
          "package_name": "com.industree.app"
        }
      },
      "oauth_client": [
        {
          "client_id": "860893422336-cn57p5p7v7ae037nrek0ma4tc3eqnifi.apps.googleusercontent.com",
          "client_type": 3
        }
      ],
      "api_key": [
        {
          "current_key": "AIzaSyCbc-EAKgyslnd-8TdBnc3YUQLle_guVjQ"
        }
      ],
      "services": {
        "appinvite_service": {
          "other_platform_oauth_client": [
            {
              "client_id": "860893422336-cn57p5p7v7ae037nrek0ma4tc3eqnifi.apps.googleusercontent.com",
              "client_type": 3
            },
            {
              "client_id": "860893422336-lki60oivq4k6uflht9u0u18v66qd3ah5.apps.googleusercontent.com",
              "client_type": 2,
              "ios_info": {
                "bundle_id": "com.industree.app"
              }
            }
          ]
        }
      }
    }
  ],
  "configuration_version": "1"
}